{"properties": [
  {
    "name": "api.key",
    "type": "java.lang.String",
    "description": "A description for 'api.key'"
  },
  {
    "name": "emp.get.all.url",
    "type": "java.lang.String",
    "description": "A description for 'emp.get.all.url'"
  },
  {
    "name": "emp.create.url",
    "type": "java.lang.String",
    "description": "A description for 'emp.create.url'"
  },
  {
    "name": "emp.update.by.id.url",
    "type": "java.lang.String",
    "description": "A description for 'emp.update.by.id.url'"
  },
  {
    "name": "emp.delete.by.id.url",
    "type": "java.lang.String",
    "description": "A description for 'emp.delete.by.id.url'"
  },
  {
    "name": "emp.get.by.id.url",
    "type": "java.lang.String",
    "description": "A description for 'emp.get.by.id.url'"
  }
]}